EESchema Schematic File Version 4
LIBS:PCM1794-Shiftregs-cache
EELAYER 30 0
EELAYER END
$Descr A3 16535 11693
encoding utf-8
Sheet 1 1
Title "PCM1794 Shift Register Circuit"
Date "2019-07-17"
Rev "1.7"
Comp "T5! DIY Audio"
Comment1 ""
Comment2 ""
Comment3 ""
Comment4 ""
$EndDescr
Wire Wire Line
	2200 1300 2550 1300
Connection ~ 2200 1300
Wire Wire Line
	2200 3900 2200 1300
Wire Wire Line
	2100 3150 2100 1400
Wire Wire Line
	1800 2450 1800 1500
Wire Wire Line
	950  2650 950  2700
Wire Wire Line
	950  3350 950  3400
Wire Wire Line
	950  4100 950  4150
$Comp
L power:GND #PWR0136
U 1 1 5D2CAFA5
P 950 4150
F 0 "#PWR0136" H 950 3900 50  0001 C CNN
F 1 "GND" H 955 3977 50  0000 C CNN
F 2 "" H 950 4150 50  0001 C CNN
F 3 "" H 950 4150 50  0001 C CNN
	1    950  4150
	1    0    0    -1  
$EndComp
$Comp
L power:GND #PWR0135
U 1 1 5D2CABE2
P 950 3400
F 0 "#PWR0135" H 950 3150 50  0001 C CNN
F 1 "GND" H 955 3227 50  0000 C CNN
F 2 "" H 950 3400 50  0001 C CNN
F 3 "" H 950 3400 50  0001 C CNN
	1    950  3400
	1    0    0    -1  
$EndComp
$Comp
L power:GND #PWR0134
U 1 1 5D2CA781
P 950 2700
F 0 "#PWR0134" H 950 2450 50  0001 C CNN
F 1 "GND" H 955 2527 50  0000 C CNN
F 2 "" H 950 2700 50  0001 C CNN
F 3 "" H 950 2700 50  0001 C CNN
	1    950  2700
	1    0    0    -1  
$EndComp
$Comp
L Connector:Conn_Coaxial J44
U 1 1 5D2C9EF5
P 950 3900
F 0 "J44" H 878 4138 50  0000 C CNN
F 1 "DATA" H 878 4047 50  0000 C CNN
F 2 "Connector_Coaxial:U.FL_Hirose_U.FL-R-SMT-1_Vertical" H 950 3900 50  0001 C CNN
F 3 " ~" H 950 3900 50  0001 C CNN
	1    950  3900
	-1   0    0    -1  
$EndComp
$Comp
L Connector:Conn_Coaxial J43
U 1 1 5D2C9734
P 950 3150
F 0 "J43" H 878 3388 50  0000 C CNN
F 1 "LRCK" H 878 3297 50  0000 C CNN
F 2 "Connector_Coaxial:U.FL_Hirose_U.FL-R-SMT-1_Vertical" H 950 3150 50  0001 C CNN
F 3 " ~" H 950 3150 50  0001 C CNN
	1    950  3150
	-1   0    0    -1  
$EndComp
$Comp
L Connector:Conn_Coaxial J42
U 1 1 5D2C3F5A
P 950 2450
F 0 "J42" H 878 2688 50  0000 C CNN
F 1 "BCK" H 878 2597 50  0000 C CNN
F 2 "Connector_Coaxial:U.FL_Hirose_U.FL-R-SMT-1_Vertical" H 950 2450 50  0001 C CNN
F 3 " ~" H 950 2450 50  0001 C CNN
	1    950  2450
	-1   0    0    -1  
$EndComp
$Comp
L Connector_Generic:Conn_02x05_Odd_Even J39
U 1 1 5D575A2A
P 1000 1400
F 0 "J39" H 1050 975 50  0000 C CNN
F 1 "I2S_in" H 1050 1066 50  0000 C CNN
F 2 "Connector_PinHeader_2.54mm:PinHeader_2x05_P2.54mm_Vertical" H 1000 1400 50  0001 C CNN
F 3 "~" H 1000 1400 50  0001 C CNN
	1    1000 1400
	1    0    0    1   
$EndComp
Wire Wire Line
	2100 1400 2550 1400
Wire Wire Line
	1800 1500 2550 1500
Connection ~ 1800 1500
Wire Wire Line
	1300 1500 1800 1500
Wire Wire Line
	1300 1300 2200 1300
Text Label 2550 1400 0    50   ~ 0
LRCK
Text Label 2550 1500 0    50   ~ 0
BCK
$Comp
L power:GND #PWR0108
U 1 1 5D20261A
P 1050 1800
F 0 "#PWR0108" H 1050 1550 50  0001 C CNN
F 1 "GND" H 1055 1627 50  0000 C CNN
F 2 "" H 1050 1800 50  0001 C CNN
F 3 "" H 1050 1800 50  0001 C CNN
	1    1050 1800
	1    0    0    -1  
$EndComp
Text Label 2550 1300 0    50   ~ 0
DATA
$Comp
L power:+5V #PWR0104
U 1 1 5D42FB93
P 1400 1150
F 0 "#PWR0104" H 1400 1000 50  0001 C CNN
F 1 "+5V" H 1415 1323 50  0000 C CNN
F 2 "" H 1400 1150 50  0001 C CNN
F 3 "" H 1400 1150 50  0001 C CNN
	1    1400 1150
	1    0    0    -1  
$EndComp
Wire Wire Line
	1300 1200 1400 1200
Wire Wire Line
	1400 1200 1400 1150
Wire Wire Line
	800  1200 750  1200
Wire Wire Line
	750  1300 800  1300
Wire Wire Line
	750  1400 800  1400
Wire Wire Line
	800  1500 750  1500
Wire Wire Line
	800  1600 750  1600
Wire Wire Line
	750  1800 1050 1800
Wire Wire Line
	1050 1800 1350 1800
Wire Wire Line
	1350 1800 1350 1600
Wire Wire Line
	1350 1600 1300 1600
Connection ~ 1050 1800
Wire Wire Line
	750  1200 750  1300
Wire Wire Line
	750  1300 750  1400
Connection ~ 750  1300
Wire Wire Line
	750  1500 750  1400
Wire Wire Line
	750  1600 750  1500
Connection ~ 750  1400
Connection ~ 750  1500
Wire Wire Line
	750  1600 750  1800
Connection ~ 750  1600
Wire Wire Line
	3900 10550 3900 10000
$Comp
L power:GND #PWR0141
U 1 1 5D6759E4
P 3900 10550
F 0 "#PWR0141" H 3900 10300 50  0001 C CNN
F 1 "GND" H 3905 10377 50  0000 C CNN
F 2 "" H 3900 10550 50  0001 C CNN
F 3 "" H 3900 10550 50  0001 C CNN
	1    3900 10550
	1    0    0    -1  
$EndComp
Wire Wire Line
	5400 10350 5400 10550
$Comp
L power:GND #PWR0140
U 1 1 5D639A8F
P 5400 10550
F 0 "#PWR0140" H 5400 10300 50  0001 C CNN
F 1 "GND" H 5405 10377 50  0000 C CNN
F 2 "" H 5400 10550 50  0001 C CNN
F 3 "" H 5400 10550 50  0001 C CNN
	1    5400 10550
	1    0    0    -1  
$EndComp
Wire Wire Line
	5400 9100 5400 10050
Wire Wire Line
	5400 9100 4600 9100
$Comp
L Device:C C12
U 1 1 5DAAE9BD
P 5400 10200
F 0 "C12" H 5515 10246 50  0000 L CNN
F 1 "4.7u" H 5515 10155 50  0000 L CNN
F 2 "Capacitor_SMD:C_1206_3216Metric" H 5438 10050 50  0001 C CNN
F 3 "~" H 5400 10200 50  0001 C CNN
	1    5400 10200
	1    0    0    -1  
$EndComp
Wire Wire Line
	5850 9100 5400 9100
Connection ~ 5400 9100
Connection ~ 4600 9100
Wire Wire Line
	5150 9300 4500 9300
Wire Wire Line
	5150 10550 5150 9300
$Comp
L power:GND #PWR0139
U 1 1 5D4E4B4C
P 5150 10550
F 0 "#PWR0139" H 5150 10300 50  0001 C CNN
F 1 "GND" H 5155 10377 50  0000 C CNN
F 2 "" H 5150 10550 50  0001 C CNN
F 3 "" H 5150 10550 50  0001 C CNN
	1    5150 10550
	1    0    0    -1  
$EndComp
Wire Wire Line
	4650 9400 4650 10000
Wire Wire Line
	4500 9400 4650 9400
Wire Wire Line
	4600 9100 4500 9100
Wire Wire Line
	4600 9200 4600 9100
Wire Wire Line
	4500 9200 4600 9200
Wire Wire Line
	3050 10550 3050 9500
Wire Wire Line
	3050 9500 3300 9500
$Comp
L power:GND #PWR0138
U 1 1 5D39C991
P 3050 10550
F 0 "#PWR0138" H 3050 10300 50  0001 C CNN
F 1 "GND" H 3055 10377 50  0000 C CNN
F 2 "" H 3050 10550 50  0001 C CNN
F 3 "" H 3050 10550 50  0001 C CNN
	1    3050 10550
	1    0    0    -1  
$EndComp
Connection ~ 3200 9200
Wire Wire Line
	3200 9300 3200 9200
Wire Wire Line
	3200 9100 2650 9100
Connection ~ 3200 9100
Wire Wire Line
	3200 9200 3200 9100
Wire Wire Line
	3300 9200 3200 9200
Wire Wire Line
	2650 9100 2650 9850
Wire Wire Line
	3300 9100 3200 9100
$Comp
L SamacSys_Parts:LT3042EMSE#PBF IC1
U 1 1 5D2D7C70
P 3300 9100
F 0 "IC1" H 3900 9365 50  0000 C CNN
F 1 "LT3042EMSE#PBF" H 3900 9274 50  0000 C CNN
F 2 "SamacSys_Parts:SOP50P490X110-11N" H 4350 9200 50  0001 L CNN
F 3 "https://componentsearchengine.com/Datasheets/1/LT3042EMSE#PBF.pdf" H 4350 9100 50  0001 L CNN
F 4 "LINEAR TECHNOLOGY - LT3042EMSE#PBF - LDO, ADJ, 0.2A, 0V-15V, MSOP-10" H 4350 9000 50  0001 L CNN "Description"
F 5 "1.1" H 4350 8900 50  0001 L CNN "Height"
F 6 "584-LT3042EMSE#PBF" H 4350 8800 50  0001 L CNN "Mouser Part Number"
F 7 "https://www.mouser.com/Search/Refine.aspx?Keyword=584-LT3042EMSE%23PBF" H 4350 8700 50  0001 L CNN "Mouser Price/Stock"
F 8 "Linear Technology" H 4350 8600 50  0001 L CNN "Manufacturer_Name"
F 9 "LT3042EMSE#PBF" H 4350 8500 50  0001 L CNN "Manufacturer_Part_Number"
	1    3300 9100
	1    0    0    -1  
$EndComp
Connection ~ 5850 9100
Wire Wire Line
	2650 10450 2650 10550
Connection ~ 2650 9850
Wire Wire Line
	2650 9850 2650 10150
$Comp
L power:GND #PWR0137
U 1 1 5DA3BD68
P 2650 10550
F 0 "#PWR0137" H 2650 10300 50  0001 C CNN
F 1 "GND" H 2655 10377 50  0000 C CNN
F 2 "" H 2650 10550 50  0001 C CNN
F 3 "" H 2650 10550 50  0001 C CNN
	1    2650 10550
	1    0    0    -1  
$EndComp
$Comp
L Device:C C5
U 1 1 5DA3A1A8
P 2650 10300
F 0 "C5" H 2765 10346 50  0000 L CNN
F 1 "4.7u" H 2765 10255 50  0000 L CNN
F 2 "Capacitor_SMD:C_1206_3216Metric" H 2688 10150 50  0001 C CNN
F 3 "~" H 2650 10300 50  0001 C CNN
	1    2650 10300
	1    0    0    -1  
$EndComp
Connection ~ 4650 10500
Wire Wire Line
	4300 10500 4300 10400
Wire Wire Line
	4650 10500 4300 10500
Wire Wire Line
	4650 10000 4650 10100
Connection ~ 4650 10000
Wire Wire Line
	4300 10000 4300 10100
Wire Wire Line
	4650 10000 4300 10000
$Comp
L Device:C C11
U 1 1 5D9E89A9
P 4300 10250
F 0 "C11" H 4415 10296 50  0000 L CNN
F 1 "4.7u" H 4415 10205 50  0000 L CNN
F 2 "Capacitor_SMD:C_1206_3216Metric" H 4338 10100 50  0001 C CNN
F 3 "~" H 4300 10250 50  0001 C CNN
	1    4300 10250
	1    0    0    -1  
$EndComp
Wire Wire Line
	4650 10500 4650 10550
Wire Wire Line
	4650 10400 4650 10500
$Comp
L Device:R R9
U 1 1 5D99A546
P 4650 10250
F 0 "R9" H 4720 10296 50  0000 L CNN
F 1 "50k/1%" H 4720 10205 50  0000 L CNN
F 2 "Resistor_SMD:R_1206_3216Metric" V 4580 10250 50  0001 C CNN
F 3 "~" H 4650 10250 50  0001 C CNN
	1    4650 10250
	1    0    0    -1  
$EndComp
$Comp
L power:GND #PWR0133
U 1 1 5D96881A
P 4650 10550
F 0 "#PWR0133" H 4650 10300 50  0001 C CNN
F 1 "GND" H 4655 10377 50  0000 C CNN
F 2 "" H 4650 10550 50  0001 C CNN
F 3 "" H 4650 10550 50  0001 C CNN
	1    4650 10550
	1    0    0    -1  
$EndComp
Wire Wire Line
	1900 9850 2650 9850
Wire Wire Line
	1900 9850 1900 9800
Connection ~ 1900 9850
Wire Wire Line
	1600 9850 1900 9850
Wire Wire Line
	1650 9950 1650 10550
Wire Wire Line
	1600 9950 1650 9950
$Comp
L SamacSys_Parts:691313510002 J2
U 1 1 5D2BA01D
P 1600 9950
F 0 "J2" H 1892 9585 50  0000 C CNN
F 1 "12V" H 1892 9676 50  0000 C CNN
F 2 "SamacSys_Parts:SHDR2W140P0X508_1X2_1216X1200X850P" H 2250 10050 50  0001 L CNN
F 3 "https://componentsearchengine.com/Datasheets/1/691313510002.pdf" H 2250 9950 50  0001 L CNN
F 4 "WR-TBL Terminal block - serie 313" H 2250 9850 50  0001 L CNN "Description"
F 5 "8.5" H 2250 9750 50  0001 L CNN "Height"
F 6 "710-691313510002" H 2250 9650 50  0001 L CNN "Mouser Part Number"
F 7 "https://www.mouser.com/Search/Refine.aspx?Keyword=710-691313510002" H 2250 9550 50  0001 L CNN "Mouser Price/Stock"
F 8 "Wurth Elektronik" H 2250 9450 50  0001 L CNN "Manufacturer_Name"
F 9 "691313510002" H 2250 9350 50  0001 L CNN "Manufacturer_Part_Number"
	1    1600 9950
	-1   0    0    1   
$EndComp
$Comp
L SamacSys_Parts:20SVPS47M C4
U 1 1 5D331C03
P 5850 9950
F 0 "C4" V 6054 10080 50  0000 L CNN
F 1 "20SVPS47M" V 6145 10080 50  0000 L CNN
F 2 "SamacSys_Parts:CAPAE830X690N" H 6200 10000 50  0001 L CNN
F 3 "" H 6200 9900 50  0001 L CNN
F 4 "Aluminum Organic Polymer Capacitors 20volts 47uF 20mohm 8x7mm OSCON" H 6200 9800 50  0001 L CNN "Description"
F 5 "6.9" H 6200 9700 50  0001 L CNN "Height"
F 6 "" H 6200 9600 50  0001 L CNN "Mouser Part Number"
F 7 "" H 6200 9500 50  0001 L CNN "Mouser Price/Stock"
F 8 "Panasonic" H 6200 9400 50  0001 L CNN "Manufacturer_Name"
F 9 "20SVPS47M" H 6200 9300 50  0001 L CNN "Manufacturer_Part_Number"
	1    5850 9950
	0    1    1    0   
$EndComp
Wire Wire Line
	1900 10550 1900 10450
$Comp
L power:GND #PWR0101
U 1 1 5D200B13
P 1650 10550
F 0 "#PWR0101" H 1650 10300 50  0001 C CNN
F 1 "GND" H 1655 10377 50  0000 C CNN
F 2 "" H 1650 10550 50  0001 C CNN
F 3 "" H 1650 10550 50  0001 C CNN
	1    1650 10550
	1    0    0    -1  
$EndComp
$Comp
L power:GND #PWR0102
U 1 1 5D201242
P 1900 10550
F 0 "#PWR0102" H 1900 10300 50  0001 C CNN
F 1 "GND" H 1905 10377 50  0000 C CNN
F 2 "" H 1900 10550 50  0001 C CNN
F 3 "" H 1900 10550 50  0001 C CNN
	1    1900 10550
	1    0    0    -1  
$EndComp
$Comp
L SamacSys_Parts:20SVPK470M C2
U 1 1 5D2CBF79
P 1900 9950
F 0 "C2" V 2104 10080 50  0000 L CNN
F 1 "20SVPK470M" V 2195 10080 50  0000 L CNN
F 2 "SamacSys_Parts:CAPAE830X1190N" H 2250 10000 50  0001 L CNN
F 3 "https://www.mouser.de/datasheet/2/315/AAB8000C226-1095273.pdf" H 2250 9900 50  0001 L CNN
F 4 "Panasonic 470F 20V dc Aluminium Capacitors, Surface Mount 11.9 x 8.3 x 8.3mm +125C 8mm 11.9mm" H 2250 9800 50  0001 L CNN "Description"
F 5 "11.9" H 2250 9700 50  0001 L CNN "Height"
F 6 "" H 2250 9600 50  0001 L CNN "Mouser Part Number"
F 7 "" H 2250 9500 50  0001 L CNN "Mouser Price/Stock"
F 8 "Panasonic" H 2250 9400 50  0001 L CNN "Manufacturer_Name"
F 9 "20SVPK470M" H 2250 9300 50  0001 L CNN "Manufacturer_Part_Number"
	1    1900 9950
	0    1    1    0   
$EndComp
Wire Wire Line
	1900 9950 1900 9850
Wire Wire Line
	5850 10450 5850 10550
Wire Wire Line
	5950 9100 5850 9100
$Comp
L power:+5V #PWR0107
U 1 1 5D201664
P 5950 9100
F 0 "#PWR0107" H 5950 8950 50  0001 C CNN
F 1 "+5V" V 5965 9228 50  0000 L CNN
F 2 "" H 5950 9100 50  0001 C CNN
F 3 "" H 5950 9100 50  0001 C CNN
	1    5950 9100
	0    1    1    0   
$EndComp
$Comp
L power:+12V #PWR0106
U 1 1 5D2014F7
P 1900 9800
F 0 "#PWR0106" H 1900 9650 50  0001 C CNN
F 1 "+12V" H 1915 9973 50  0000 C CNN
F 2 "" H 1900 9800 50  0001 C CNN
F 3 "" H 1900 9800 50  0001 C CNN
	1    1900 9800
	1    0    0    -1  
$EndComp
Wire Wire Line
	5850 9100 5850 9950
$Comp
L power:GND #PWR0105
U 1 1 5D201287
P 5850 10550
F 0 "#PWR0105" H 5850 10300 50  0001 C CNN
F 1 "GND" H 5855 10377 50  0000 C CNN
F 2 "" H 5850 10550 50  0001 C CNN
F 3 "" H 5850 10550 50  0001 C CNN
	1    5850 10550
	1    0    0    -1  
$EndComp
Wire Wire Line
	8200 10550 7400 10550
Connection ~ 8200 10550
Wire Wire Line
	8200 10200 8200 10550
Wire Wire Line
	8200 9550 7400 9550
Connection ~ 8200 9550
Wire Wire Line
	8200 9900 8200 9550
Wire Wire Line
	6850 9550 6850 9900
Wire Wire Line
	7400 9550 6850 9550
Wire Wire Line
	6850 10550 7400 10550
Wire Wire Line
	6850 10200 6850 10550
Connection ~ 7400 10550
Wire Wire Line
	7400 10550 7400 10600
Wire Wire Line
	7400 10550 7400 10450
Wire Wire Line
	8750 10550 8200 10550
Wire Wire Line
	7400 9550 7400 9650
Connection ~ 7400 9550
Wire Wire Line
	8750 9550 8200 9550
Wire Wire Line
	7400 9450 7400 9550
$Comp
L Device:C C3
U 1 1 5D3013CF
P 8200 10050
F 0 "C3" H 8315 10096 50  0000 L CNN
F 1 "100n" H 8315 10005 50  0000 L CNN
F 2 "Capacitor_SMD:C_1206_3216Metric" H 8238 9900 50  0001 C CNN
F 3 "~" H 8200 10050 50  0001 C CNN
	1    8200 10050
	1    0    0    -1  
$EndComp
$Comp
L 74xx:74HC04 U2
U 7 1 5D301311
P 8750 10050
F 0 "U2" H 8980 10096 50  0000 L CNN
F 1 "74VHC04MX" H 8980 10005 50  0000 L CNN
F 2 "Package_SO:SOIC-14_3.9x8.7mm_P1.27mm" H 8750 10050 50  0001 C CNN
F 3 "http://www.nxp.com/documents/data_sheet/74HC_HCT04.pdf" H 8750 10050 50  0001 C CNN
	7    8750 10050
	1    0    0    -1  
$EndComp
$Comp
L power:GND #PWR0130
U 1 1 5D2F53D6
P 7400 10600
F 0 "#PWR0130" H 7400 10350 50  0001 C CNN
F 1 "GND" H 7405 10427 50  0000 C CNN
F 2 "" H 7400 10600 50  0001 C CNN
F 3 "" H 7400 10600 50  0001 C CNN
	1    7400 10600
	1    0    0    -1  
$EndComp
$Comp
L power:+5V #PWR0129
U 1 1 5D2F531C
P 7400 9450
F 0 "#PWR0129" H 7400 9300 50  0001 C CNN
F 1 "+5V" H 7415 9623 50  0000 C CNN
F 2 "" H 7400 9450 50  0001 C CNN
F 3 "" H 7400 9450 50  0001 C CNN
	1    7400 9450
	1    0    0    -1  
$EndComp
$Comp
L Device:C C1
U 1 1 5D2E98E4
P 6850 10050
F 0 "C1" H 6965 10096 50  0000 L CNN
F 1 "100n" H 6965 10005 50  0000 L CNN
F 2 "Capacitor_SMD:C_1206_3216Metric" H 6888 9900 50  0001 C CNN
F 3 "~" H 6850 10050 50  0001 C CNN
	1    6850 10050
	1    0    0    -1  
$EndComp
$Comp
L 74xx:74HC74 U1
U 3 1 5D2E96F2
P 7400 10050
F 0 "U1" H 7630 10096 50  0000 L CNN
F 1 "74VHC74MX" H 7630 10005 50  0000 L CNN
F 2 "Package_SO:SOIC-14_3.9x8.7mm_P1.27mm" H 7400 10050 50  0001 C CNN
F 3 "74xx/74hc_hct74.pdf" H 7400 10050 50  0001 C CNN
	3    7400 10050
	1    0    0    -1  
$EndComp
NoConn ~ 11400 10600
NoConn ~ 11400 10850
$Comp
L Connector:Conn_01x01_Male J36
U 1 1 5D4EE1B7
P 11200 10600
F 0 "J36" H 11306 10778 50  0000 C CNN
F 1 "logo" H 11306 10687 50  0000 C CNN
F 2 "T5_w11:T5_w11" H 11200 10600 50  0001 C CNN
F 3 "~" H 11200 10600 50  0001 C CNN
	1    11200 10600
	1    0    0    -1  
$EndComp
$Comp
L Connector:Conn_01x01_Male J1
U 1 1 5D200884
P 11200 10850
F 0 "J1" H 11306 11028 50  0000 C CNN
F 1 "original" H 11306 10937 50  0000 C CNN
F 2 "T5_w11:PCM1794_original_layout" H 11200 10850 50  0001 C CNN
F 3 "~" H 11200 10850 50  0001 C CNN
	1    11200 10850
	1    0    0    -1  
$EndComp
Text Label 5100 3550 0    50   ~ 0
BCK_BUF
Wire Wire Line
	4150 4300 4350 4300
Text Label 3200 3550 0    50   ~ 0
BCK
Wire Wire Line
	3650 3550 3200 3550
Wire Wire Line
	4250 3550 4350 3550
NoConn ~ 4950 4300
$Comp
L power:+5V #PWR0124
U 1 1 5D21B97E
P 4150 4300
F 0 "#PWR0124" H 4150 4150 50  0001 C CNN
F 1 "+5V" V 4165 4428 50  0000 L CNN
F 2 "" H 4150 4300 50  0001 C CNN
F 3 "" H 4150 4300 50  0001 C CNN
	1    4150 4300
	0    -1   -1   0   
$EndComp
$Comp
L 74xx:74HC04 U2
U 6 1 5D21B6CF
P 3950 3550
F 0 "U2" H 3950 3867 50  0000 C CNN
F 1 "74VHC04MX" H 3950 3776 50  0000 C CNN
F 2 "Package_SO:SOIC-14_3.9x8.7mm_P1.27mm" H 3950 3550 50  0001 C CNN
F 3 "http://www.nxp.com/documents/data_sheet/74HC_HCT04.pdf" H 3950 3550 50  0001 C CNN
	6    3950 3550
	1    0    0    -1  
$EndComp
$Comp
L 74xx:74HC04 U2
U 5 1 5D21B624
P 4650 3550
F 0 "U2" H 4650 3867 50  0000 C CNN
F 1 "74VHC04MX" H 4650 3776 50  0000 C CNN
F 2 "Package_SO:SOIC-14_3.9x8.7mm_P1.27mm" H 4650 3550 50  0001 C CNN
F 3 "http://www.nxp.com/documents/data_sheet/74HC_HCT04.pdf" H 4650 3550 50  0001 C CNN
	5    4650 3550
	1    0    0    -1  
$EndComp
$Comp
L 74xx:74HC04 U2
U 4 1 5D21B58A
P 4650 4300
F 0 "U2" H 4650 4617 50  0000 C CNN
F 1 "74VHC04MX" H 4650 4526 50  0000 C CNN
F 2 "Package_SO:SOIC-14_3.9x8.7mm_P1.27mm" H 4650 4300 50  0001 C CNN
F 3 "http://www.nxp.com/documents/data_sheet/74HC_HCT04.pdf" H 4650 4300 50  0001 C CNN
	4    4650 4300
	1    0    0    -1  
$EndComp
Wire Wire Line
	7550 4500 9350 4500
NoConn ~ 11850 2050
NoConn ~ 11850 1950
NoConn ~ 11850 1850
NoConn ~ 11850 1750
NoConn ~ 11850 1650
NoConn ~ 11850 1550
NoConn ~ 11850 1450
NoConn ~ 10500 2050
NoConn ~ 10500 1950
NoConn ~ 10500 1850
NoConn ~ 10500 1750
NoConn ~ 10500 1650
NoConn ~ 10500 1550
NoConn ~ 10500 1450
NoConn ~ 9150 2050
NoConn ~ 9150 1950
NoConn ~ 9150 1850
NoConn ~ 9150 1750
NoConn ~ 9150 1650
NoConn ~ 9150 1550
NoConn ~ 9150 1450
NoConn ~ 7800 2050
NoConn ~ 7800 1950
NoConn ~ 7800 1850
NoConn ~ 7800 1750
NoConn ~ 7800 1650
NoConn ~ 7800 1550
NoConn ~ 7800 1450
NoConn ~ 6450 2150
NoConn ~ 6450 1950
NoConn ~ 6450 1850
NoConn ~ 6450 1750
NoConn ~ 6450 1650
NoConn ~ 6450 1550
NoConn ~ 6450 1450
Text Label 9350 4000 0    50   ~ 0
DATA-7
Text Label 6300 2800 0    50   ~ 0
DATA-7
Wire Wire Line
	9650 4000 9350 4000
Text Label 8600 4000 0    50   ~ 0
DATA-39,5
Wire Wire Line
	8400 4000 8600 4000
Text Label 10550 4000 0    50   ~ 0
DATA-7,5
Wire Wire Line
	10250 4000 10550 4000
Text Label 7400 4000 0    50   ~ 0
DATA-39
Wire Wire Line
	7800 4000 7400 4000
Text Label 12150 2150 0    50   ~ 0
DATA-39
Wire Wire Line
	11850 2150 12150 2150
Wire Wire Line
	6700 2050 6950 2050
Connection ~ 6700 2050
Wire Wire Line
	6700 2800 6300 2800
Wire Wire Line
	6700 2050 6700 2800
Wire Wire Line
	7550 4100 7800 4100
Connection ~ 7550 4100
Wire Wire Line
	7550 4500 7550 4100
Wire Wire Line
	9350 4100 9350 4500
Wire Wire Line
	9650 4100 9350 4100
NoConn ~ 10250 4200
NoConn ~ 8400 4200
Wire Wire Line
	8100 4400 8000 4400
Wire Wire Line
	9950 4400 9850 4400
$Comp
L power:+5V #PWR0128
U 1 1 5D291DCE
P 9850 4400
F 0 "#PWR0128" H 9850 4250 50  0001 C CNN
F 1 "+5V" V 9865 4528 50  0000 L CNN
F 2 "" H 9850 4400 50  0001 C CNN
F 3 "" H 9850 4400 50  0001 C CNN
	1    9850 4400
	0    -1   -1   0   
$EndComp
$Comp
L power:+5V #PWR0127
U 1 1 5D291D81
P 8000 4400
F 0 "#PWR0127" H 8000 4250 50  0001 C CNN
F 1 "+5V" V 8015 4528 50  0000 L CNN
F 2 "" H 8000 4400 50  0001 C CNN
F 3 "" H 8000 4400 50  0001 C CNN
	1    8000 4400
	0    -1   -1   0   
$EndComp
Wire Wire Line
	9850 3800 9950 3800
Wire Wire Line
	8000 3800 8100 3800
$Comp
L power:+5V #PWR0126
U 1 1 5D288702
P 9850 3800
F 0 "#PWR0126" H 9850 3650 50  0001 C CNN
F 1 "+5V" V 9865 3928 50  0000 L CNN
F 2 "" H 9850 3800 50  0001 C CNN
F 3 "" H 9850 3800 50  0001 C CNN
	1    9850 3800
	0    -1   -1   0   
$EndComp
$Comp
L power:+5V #PWR0125
U 1 1 5D2885D8
P 8000 3800
F 0 "#PWR0125" H 8000 3650 50  0001 C CNN
F 1 "+5V" V 8015 3928 50  0000 L CNN
F 2 "" H 8000 3800 50  0001 C CNN
F 3 "" H 8000 3800 50  0001 C CNN
	1    8000 3800
	0    -1   -1   0   
$EndComp
Wire Wire Line
	6150 4100 7550 4100
Connection ~ 9600 3000
Wire Wire Line
	10950 1850 11150 1850
Wire Wire Line
	10950 3000 10950 1850
Wire Wire Line
	9600 3000 10950 3000
Connection ~ 8250 3000
Wire Wire Line
	9600 1850 9800 1850
Wire Wire Line
	9600 3000 9600 1850
Wire Wire Line
	8250 3000 9600 3000
Connection ~ 7000 3000
Wire Wire Line
	8250 1850 8450 1850
Wire Wire Line
	8250 3000 8250 1850
Wire Wire Line
	7000 3000 8250 3000
Wire Wire Line
	6900 3000 7000 3000
Connection ~ 6900 3000
Wire Wire Line
	6900 1850 6900 3000
Wire Wire Line
	7100 1850 6900 1850
Wire Wire Line
	7000 3550 6900 3550
Wire Wire Line
	7000 3000 7000 3550
Wire Wire Line
	5550 3000 6900 3000
Wire Wire Line
	5550 1850 5550 3000
Wire Wire Line
	5750 1850 5550 1850
Wire Wire Line
	5450 3550 4950 3550
Connection ~ 5450 3550
Wire Wire Line
	5450 4100 5450 3550
Wire Wire Line
	5550 4100 5450 4100
Wire Wire Line
	5550 3550 5450 3550
Wire Wire Line
	6150 3550 6300 3550
Text Label 4950 1650 0    50   ~ 0
DATA
Connection ~ 5700 1650
Wire Wire Line
	4950 1650 5700 1650
$Comp
L 74xx:74HC74 U1
U 2 1 5D21B8A3
P 9950 4100
F 0 "U1" H 9950 4578 50  0000 C CNN
F 1 "74VHC74MX" H 9950 4487 50  0000 C CNN
F 2 "Package_SO:SOIC-14_3.9x8.7mm_P1.27mm" H 9950 4100 50  0001 C CNN
F 3 "74xx/74hc_hct74.pdf" H 9950 4100 50  0001 C CNN
	2    9950 4100
	1    0    0    -1  
$EndComp
$Comp
L 74xx:74HC74 U1
U 1 1 5D21B7EA
P 8100 4100
F 0 "U1" H 8100 4578 50  0000 C CNN
F 1 "74VHC74MX" H 8100 4487 50  0000 C CNN
F 2 "Package_SO:SOIC-14_3.9x8.7mm_P1.27mm" H 8100 4100 50  0001 C CNN
F 3 "74xx/74hc_hct74.pdf" H 8100 4100 50  0001 C CNN
	1    8100 4100
	1    0    0    -1  
$EndComp
$Comp
L 74xx:74HC04 U2
U 3 1 5D21B4F3
P 5850 4100
F 0 "U2" H 5850 4417 50  0000 C CNN
F 1 "74VHC04MX" H 5850 4326 50  0000 C CNN
F 2 "Package_SO:SOIC-14_3.9x8.7mm_P1.27mm" H 5850 4100 50  0001 C CNN
F 3 "http://www.nxp.com/documents/data_sheet/74HC_HCT04.pdf" H 5850 4100 50  0001 C CNN
	3    5850 4100
	1    0    0    -1  
$EndComp
$Comp
L 74xx:74HC04 U2
U 2 1 5D21B3F6
P 6600 3550
F 0 "U2" H 6600 3867 50  0000 C CNN
F 1 "74VHC04MX" H 6600 3776 50  0000 C CNN
F 2 "Package_SO:SOIC-14_3.9x8.7mm_P1.27mm" H 6600 3550 50  0001 C CNN
F 3 "http://www.nxp.com/documents/data_sheet/74HC_HCT04.pdf" H 6600 3550 50  0001 C CNN
	2    6600 3550
	1    0    0    -1  
$EndComp
$Comp
L 74xx:74HC04 U2
U 1 1 5D21B355
P 5850 3550
F 0 "U2" H 5850 3867 50  0000 C CNN
F 1 "74VHC04MX" H 5850 3776 50  0000 C CNN
F 2 "Package_SO:SOIC-14_3.9x8.7mm_P1.27mm" H 5850 3550 50  0001 C CNN
F 3 "http://www.nxp.com/documents/data_sheet/74HC_HCT04.pdf" H 5850 3550 50  0001 C CNN
	1    5850 3550
	1    0    0    -1  
$EndComp
Connection ~ 11100 1650
Wire Wire Line
	11000 1650 11100 1650
Wire Wire Line
	11000 2150 11000 1650
Wire Wire Line
	10500 2150 11000 2150
Connection ~ 9750 1650
Wire Wire Line
	9650 1650 9750 1650
Wire Wire Line
	9650 2150 9650 1650
Wire Wire Line
	9150 2150 9650 2150
Connection ~ 8400 1650
Wire Wire Line
	8300 1650 8400 1650
Wire Wire Line
	8300 2150 8300 1650
Wire Wire Line
	7800 2150 8300 2150
Connection ~ 7050 1650
Wire Wire Line
	6950 1650 7050 1650
Wire Wire Line
	6950 2050 6950 1650
Wire Wire Line
	6450 2050 6700 2050
Connection ~ 10800 1050
Wire Wire Line
	10800 1050 11150 1050
Connection ~ 11150 1250
Wire Wire Line
	11150 1550 11150 1250
Wire Wire Line
	11050 1550 11150 1550
Wire Wire Line
	11050 1950 11050 1550
Wire Wire Line
	11150 1950 11050 1950
Wire Wire Line
	11100 1650 11150 1650
Wire Wire Line
	11100 1750 11150 1750
Wire Wire Line
	11100 1650 11100 1750
Wire Wire Line
	11150 1050 11150 1250
Wire Wire Line
	10800 1400 10800 1350
$Comp
L power:GND #PWR0123
U 1 1 5D20D766
P 10800 1400
F 0 "#PWR0123" H 10800 1150 50  0001 C CNN
F 1 "GND" H 10805 1227 50  0000 C CNN
F 2 "" H 10800 1400 50  0001 C CNN
F 3 "" H 10800 1400 50  0001 C CNN
	1    10800 1400
	1    0    0    -1  
$EndComp
Wire Wire Line
	11450 1250 11150 1250
Wire Wire Line
	10800 1000 10800 1050
$Comp
L Device:C C10
U 1 1 5D20D75E
P 10800 1200
F 0 "C10" H 10915 1246 50  0000 L CNN
F 1 "100n" H 10915 1155 50  0000 L CNN
F 2 "Capacitor_SMD:C_1206_3216Metric" H 10838 1050 50  0001 C CNN
F 3 "~" H 10800 1200 50  0001 C CNN
	1    10800 1200
	1    0    0    -1  
$EndComp
$Comp
L power:+5V #PWR0122
U 1 1 5D20D758
P 10800 1000
F 0 "#PWR0122" H 10800 850 50  0001 C CNN
F 1 "+5V" H 10815 1173 50  0000 C CNN
F 2 "" H 10800 1000 50  0001 C CNN
F 3 "" H 10800 1000 50  0001 C CNN
	1    10800 1000
	1    0    0    -1  
$EndComp
Wire Wire Line
	11450 2350 11450 2450
$Comp
L power:GND #PWR0121
U 1 1 5D20D751
P 11450 2450
F 0 "#PWR0121" H 11450 2200 50  0001 C CNN
F 1 "GND" H 11455 2277 50  0000 C CNN
F 2 "" H 11450 2450 50  0001 C CNN
F 3 "" H 11450 2450 50  0001 C CNN
	1    11450 2450
	1    0    0    -1  
$EndComp
$Comp
L dk_Logic-Shift-Registers:SN74HC164N U8
U 1 1 5D20D74B
P 11450 1850
F 0 "U8" H 11500 2650 60  0000 C CNN
F 1 "74VHC164MX" H 11500 2544 60  0000 C CNN
F 2 "Package_SO:SOIC-14_3.9x8.7mm_P1.27mm" H 11650 2050 60  0001 L CNN
F 3 "http://www.ti.com/general/docs/suppproductinfo.tsp?distId=10&gotoUrl=http%3A%2F%2Fwww.ti.com%2Flit%2Fgpn%2Fsn74hc164" H 11650 2150 60  0001 L CNN
F 4 "296-8248-5-ND" H 11650 2250 60  0001 L CNN "Digi-Key_PN"
F 5 "SN74HC164N" H 11650 2350 60  0001 L CNN "MPN"
F 6 "Integrated Circuits (ICs)" H 11650 2450 60  0001 L CNN "Category"
F 7 "Logic - Shift Registers" H 11650 2550 60  0001 L CNN "Family"
F 8 "http://www.ti.com/general/docs/suppproductinfo.tsp?distId=10&gotoUrl=http%3A%2F%2Fwww.ti.com%2Flit%2Fgpn%2Fsn74hc164" H 11650 2650 60  0001 L CNN "DK_Datasheet_Link"
F 9 "/product-detail/en/texas-instruments/SN74HC164N/296-8248-5-ND/376946" H 11650 2750 60  0001 L CNN "DK_Detail_Page"
F 10 "IC 8-BIT SHIFT REGISTER 14-DIP" H 11650 2850 60  0001 L CNN "Description"
F 11 "Texas Instruments" H 11650 2950 60  0001 L CNN "Manufacturer"
F 12 "Active" H 11650 3050 60  0001 L CNN "Status"
	1    11450 1850
	1    0    0    -1  
$EndComp
Connection ~ 9450 1050
Wire Wire Line
	9450 1050 9800 1050
Connection ~ 9800 1250
Wire Wire Line
	9800 1550 9800 1250
Wire Wire Line
	9700 1550 9800 1550
Wire Wire Line
	9700 1950 9700 1550
Wire Wire Line
	9800 1950 9700 1950
Wire Wire Line
	9750 1650 9800 1650
Wire Wire Line
	9750 1750 9800 1750
Wire Wire Line
	9750 1650 9750 1750
Wire Wire Line
	9800 1050 9800 1250
Wire Wire Line
	9450 1400 9450 1350
$Comp
L power:GND #PWR0120
U 1 1 5D20C39C
P 9450 1400
F 0 "#PWR0120" H 9450 1150 50  0001 C CNN
F 1 "GND" H 9455 1227 50  0000 C CNN
F 2 "" H 9450 1400 50  0001 C CNN
F 3 "" H 9450 1400 50  0001 C CNN
	1    9450 1400
	1    0    0    -1  
$EndComp
Wire Wire Line
	10100 1250 9800 1250
Wire Wire Line
	9450 1000 9450 1050
$Comp
L Device:C C9
U 1 1 5D20C394
P 9450 1200
F 0 "C9" H 9565 1246 50  0000 L CNN
F 1 "100n" H 9565 1155 50  0000 L CNN
F 2 "Capacitor_SMD:C_1206_3216Metric" H 9488 1050 50  0001 C CNN
F 3 "~" H 9450 1200 50  0001 C CNN
	1    9450 1200
	1    0    0    -1  
$EndComp
$Comp
L power:+5V #PWR0119
U 1 1 5D20C38E
P 9450 1000
F 0 "#PWR0119" H 9450 850 50  0001 C CNN
F 1 "+5V" H 9465 1173 50  0000 C CNN
F 2 "" H 9450 1000 50  0001 C CNN
F 3 "" H 9450 1000 50  0001 C CNN
	1    9450 1000
	1    0    0    -1  
$EndComp
Wire Wire Line
	10100 2350 10100 2450
$Comp
L power:GND #PWR0118
U 1 1 5D20C387
P 10100 2450
F 0 "#PWR0118" H 10100 2200 50  0001 C CNN
F 1 "GND" H 10105 2277 50  0000 C CNN
F 2 "" H 10100 2450 50  0001 C CNN
F 3 "" H 10100 2450 50  0001 C CNN
	1    10100 2450
	1    0    0    -1  
$EndComp
$Comp
L dk_Logic-Shift-Registers:SN74HC164N U7
U 1 1 5D20C381
P 10100 1850
F 0 "U7" H 10150 2650 60  0000 C CNN
F 1 "74VHC164MX" H 10150 2544 60  0000 C CNN
F 2 "Package_SO:SOIC-14_3.9x8.7mm_P1.27mm" H 10300 2050 60  0001 L CNN
F 3 "http://www.ti.com/general/docs/suppproductinfo.tsp?distId=10&gotoUrl=http%3A%2F%2Fwww.ti.com%2Flit%2Fgpn%2Fsn74hc164" H 10300 2150 60  0001 L CNN
F 4 "296-8248-5-ND" H 10300 2250 60  0001 L CNN "Digi-Key_PN"
F 5 "SN74HC164N" H 10300 2350 60  0001 L CNN "MPN"
F 6 "Integrated Circuits (ICs)" H 10300 2450 60  0001 L CNN "Category"
F 7 "Logic - Shift Registers" H 10300 2550 60  0001 L CNN "Family"
F 8 "http://www.ti.com/general/docs/suppproductinfo.tsp?distId=10&gotoUrl=http%3A%2F%2Fwww.ti.com%2Flit%2Fgpn%2Fsn74hc164" H 10300 2650 60  0001 L CNN "DK_Datasheet_Link"
F 9 "/product-detail/en/texas-instruments/SN74HC164N/296-8248-5-ND/376946" H 10300 2750 60  0001 L CNN "DK_Detail_Page"
F 10 "IC 8-BIT SHIFT REGISTER 14-DIP" H 10300 2850 60  0001 L CNN "Description"
F 11 "Texas Instruments" H 10300 2950 60  0001 L CNN "Manufacturer"
F 12 "Active" H 10300 3050 60  0001 L CNN "Status"
	1    10100 1850
	1    0    0    -1  
$EndComp
Connection ~ 8100 1050
Wire Wire Line
	8100 1050 8450 1050
Connection ~ 8450 1250
Wire Wire Line
	8450 1550 8450 1250
Wire Wire Line
	8350 1550 8450 1550
Wire Wire Line
	8350 1950 8350 1550
Wire Wire Line
	8450 1950 8350 1950
Wire Wire Line
	8400 1650 8450 1650
Wire Wire Line
	8400 1750 8450 1750
Wire Wire Line
	8400 1650 8400 1750
Wire Wire Line
	8450 1050 8450 1250
Wire Wire Line
	8100 1400 8100 1350
$Comp
L power:GND #PWR0117
U 1 1 5D20B559
P 8100 1400
F 0 "#PWR0117" H 8100 1150 50  0001 C CNN
F 1 "GND" H 8105 1227 50  0000 C CNN
F 2 "" H 8100 1400 50  0001 C CNN
F 3 "" H 8100 1400 50  0001 C CNN
	1    8100 1400
	1    0    0    -1  
$EndComp
Wire Wire Line
	8750 1250 8450 1250
Wire Wire Line
	8100 1000 8100 1050
$Comp
L Device:C C8
U 1 1 5D20B551
P 8100 1200
F 0 "C8" H 8215 1246 50  0000 L CNN
F 1 "100n" H 8215 1155 50  0000 L CNN
F 2 "Capacitor_SMD:C_1206_3216Metric" H 8138 1050 50  0001 C CNN
F 3 "~" H 8100 1200 50  0001 C CNN
	1    8100 1200
	1    0    0    -1  
$EndComp
$Comp
L power:+5V #PWR0116
U 1 1 5D20B54B
P 8100 1000
F 0 "#PWR0116" H 8100 850 50  0001 C CNN
F 1 "+5V" H 8115 1173 50  0000 C CNN
F 2 "" H 8100 1000 50  0001 C CNN
F 3 "" H 8100 1000 50  0001 C CNN
	1    8100 1000
	1    0    0    -1  
$EndComp
Wire Wire Line
	8750 2350 8750 2450
$Comp
L power:GND #PWR0115
U 1 1 5D20B544
P 8750 2450
F 0 "#PWR0115" H 8750 2200 50  0001 C CNN
F 1 "GND" H 8755 2277 50  0000 C CNN
F 2 "" H 8750 2450 50  0001 C CNN
F 3 "" H 8750 2450 50  0001 C CNN
	1    8750 2450
	1    0    0    -1  
$EndComp
$Comp
L dk_Logic-Shift-Registers:SN74HC164N U6
U 1 1 5D20B53E
P 8750 1850
F 0 "U6" H 8800 2650 60  0000 C CNN
F 1 "74VHC164MX" H 8800 2544 60  0000 C CNN
F 2 "Package_SO:SOIC-14_3.9x8.7mm_P1.27mm" H 8950 2050 60  0001 L CNN
F 3 "http://www.ti.com/general/docs/suppproductinfo.tsp?distId=10&gotoUrl=http%3A%2F%2Fwww.ti.com%2Flit%2Fgpn%2Fsn74hc164" H 8950 2150 60  0001 L CNN
F 4 "296-8248-5-ND" H 8950 2250 60  0001 L CNN "Digi-Key_PN"
F 5 "SN74HC164N" H 8950 2350 60  0001 L CNN "MPN"
F 6 "Integrated Circuits (ICs)" H 8950 2450 60  0001 L CNN "Category"
F 7 "Logic - Shift Registers" H 8950 2550 60  0001 L CNN "Family"
F 8 "http://www.ti.com/general/docs/suppproductinfo.tsp?distId=10&gotoUrl=http%3A%2F%2Fwww.ti.com%2Flit%2Fgpn%2Fsn74hc164" H 8950 2650 60  0001 L CNN "DK_Datasheet_Link"
F 9 "/product-detail/en/texas-instruments/SN74HC164N/296-8248-5-ND/376946" H 8950 2750 60  0001 L CNN "DK_Detail_Page"
F 10 "IC 8-BIT SHIFT REGISTER 14-DIP" H 8950 2850 60  0001 L CNN "Description"
F 11 "Texas Instruments" H 8950 2950 60  0001 L CNN "Manufacturer"
F 12 "Active" H 8950 3050 60  0001 L CNN "Status"
	1    8750 1850
	1    0    0    -1  
$EndComp
Connection ~ 6750 1050
Wire Wire Line
	6750 1050 7100 1050
Connection ~ 7100 1250
Wire Wire Line
	7100 1550 7100 1250
Wire Wire Line
	7000 1550 7100 1550
Wire Wire Line
	7000 1950 7000 1550
Wire Wire Line
	7100 1950 7000 1950
Wire Wire Line
	7050 1650 7100 1650
Wire Wire Line
	7050 1750 7100 1750
Wire Wire Line
	7050 1650 7050 1750
Wire Wire Line
	7100 1050 7100 1250
Wire Wire Line
	6750 1400 6750 1350
$Comp
L power:GND #PWR0114
U 1 1 5D209F9D
P 6750 1400
F 0 "#PWR0114" H 6750 1150 50  0001 C CNN
F 1 "GND" H 6755 1227 50  0000 C CNN
F 2 "" H 6750 1400 50  0001 C CNN
F 3 "" H 6750 1400 50  0001 C CNN
	1    6750 1400
	1    0    0    -1  
$EndComp
Wire Wire Line
	7400 1250 7100 1250
Wire Wire Line
	6750 1000 6750 1050
$Comp
L Device:C C7
U 1 1 5D209F95
P 6750 1200
F 0 "C7" H 6865 1246 50  0000 L CNN
F 1 "100n" H 6865 1155 50  0000 L CNN
F 2 "Capacitor_SMD:C_1206_3216Metric" H 6788 1050 50  0001 C CNN
F 3 "~" H 6750 1200 50  0001 C CNN
	1    6750 1200
	1    0    0    -1  
$EndComp
$Comp
L power:+5V #PWR0113
U 1 1 5D209F8F
P 6750 1000
F 0 "#PWR0113" H 6750 850 50  0001 C CNN
F 1 "+5V" H 6765 1173 50  0000 C CNN
F 2 "" H 6750 1000 50  0001 C CNN
F 3 "" H 6750 1000 50  0001 C CNN
	1    6750 1000
	1    0    0    -1  
$EndComp
Wire Wire Line
	7400 2350 7400 2450
$Comp
L power:GND #PWR0112
U 1 1 5D209F88
P 7400 2450
F 0 "#PWR0112" H 7400 2200 50  0001 C CNN
F 1 "GND" H 7405 2277 50  0000 C CNN
F 2 "" H 7400 2450 50  0001 C CNN
F 3 "" H 7400 2450 50  0001 C CNN
	1    7400 2450
	1    0    0    -1  
$EndComp
$Comp
L dk_Logic-Shift-Registers:SN74HC164N U5
U 1 1 5D209F82
P 7400 1850
F 0 "U5" H 7450 2650 60  0000 C CNN
F 1 "74VHC164MX" H 7450 2544 60  0000 C CNN
F 2 "Package_SO:SOIC-14_3.9x8.7mm_P1.27mm" H 7600 2050 60  0001 L CNN
F 3 "http://www.ti.com/general/docs/suppproductinfo.tsp?distId=10&gotoUrl=http%3A%2F%2Fwww.ti.com%2Flit%2Fgpn%2Fsn74hc164" H 7600 2150 60  0001 L CNN
F 4 "296-8248-5-ND" H 7600 2250 60  0001 L CNN "Digi-Key_PN"
F 5 "SN74HC164N" H 7600 2350 60  0001 L CNN "MPN"
F 6 "Integrated Circuits (ICs)" H 7600 2450 60  0001 L CNN "Category"
F 7 "Logic - Shift Registers" H 7600 2550 60  0001 L CNN "Family"
F 8 "http://www.ti.com/general/docs/suppproductinfo.tsp?distId=10&gotoUrl=http%3A%2F%2Fwww.ti.com%2Flit%2Fgpn%2Fsn74hc164" H 7600 2650 60  0001 L CNN "DK_Datasheet_Link"
F 9 "/product-detail/en/texas-instruments/SN74HC164N/296-8248-5-ND/376946" H 7600 2750 60  0001 L CNN "DK_Detail_Page"
F 10 "IC 8-BIT SHIFT REGISTER 14-DIP" H 7600 2850 60  0001 L CNN "Description"
F 11 "Texas Instruments" H 7600 2950 60  0001 L CNN "Manufacturer"
F 12 "Active" H 7600 3050 60  0001 L CNN "Status"
	1    7400 1850
	1    0    0    -1  
$EndComp
Connection ~ 5400 1050
Wire Wire Line
	5400 1050 5750 1050
Connection ~ 5750 1250
Wire Wire Line
	5750 1550 5750 1250
Wire Wire Line
	5650 1550 5750 1550
Wire Wire Line
	5650 1950 5650 1550
Wire Wire Line
	5750 1950 5650 1950
Wire Wire Line
	5700 1650 5750 1650
Wire Wire Line
	5700 1750 5750 1750
Wire Wire Line
	5700 1650 5700 1750
Wire Wire Line
	5750 1050 5750 1250
Wire Wire Line
	5400 1400 5400 1350
$Comp
L power:GND #PWR0111
U 1 1 5D2045ED
P 5400 1400
F 0 "#PWR0111" H 5400 1150 50  0001 C CNN
F 1 "GND" H 5405 1227 50  0000 C CNN
F 2 "" H 5400 1400 50  0001 C CNN
F 3 "" H 5400 1400 50  0001 C CNN
	1    5400 1400
	1    0    0    -1  
$EndComp
Wire Wire Line
	6050 1250 5750 1250
Wire Wire Line
	5400 1000 5400 1050
$Comp
L Device:C C6
U 1 1 5D203F30
P 5400 1200
F 0 "C6" H 5515 1246 50  0000 L CNN
F 1 "100n" H 5515 1155 50  0000 L CNN
F 2 "Capacitor_SMD:C_1206_3216Metric" H 5438 1050 50  0001 C CNN
F 3 "~" H 5400 1200 50  0001 C CNN
	1    5400 1200
	1    0    0    -1  
$EndComp
$Comp
L power:+5V #PWR0110
U 1 1 5D203E05
P 5400 1000
F 0 "#PWR0110" H 5400 850 50  0001 C CNN
F 1 "+5V" H 5415 1173 50  0000 C CNN
F 2 "" H 5400 1000 50  0001 C CNN
F 3 "" H 5400 1000 50  0001 C CNN
	1    5400 1000
	1    0    0    -1  
$EndComp
Wire Wire Line
	6050 2350 6050 2450
$Comp
L power:GND #PWR0109
U 1 1 5D203B26
P 6050 2450
F 0 "#PWR0109" H 6050 2200 50  0001 C CNN
F 1 "GND" H 6055 2277 50  0000 C CNN
F 2 "" H 6050 2450 50  0001 C CNN
F 3 "" H 6050 2450 50  0001 C CNN
	1    6050 2450
	1    0    0    -1  
$EndComp
$Comp
L dk_Logic-Shift-Registers:SN74HC164N U4
U 1 1 5D203A5F
P 6050 1850
F 0 "U4" H 6100 2650 60  0000 C CNN
F 1 "74VHC164MX" H 6100 2544 60  0000 C CNN
F 2 "Package_SO:SOIC-14_3.9x8.7mm_P1.27mm" H 6250 2050 60  0001 L CNN
F 3 "http://www.ti.com/general/docs/suppproductinfo.tsp?distId=10&gotoUrl=http%3A%2F%2Fwww.ti.com%2Flit%2Fgpn%2Fsn74hc164" H 6250 2150 60  0001 L CNN
F 4 "296-8248-5-ND" H 6250 2250 60  0001 L CNN "Digi-Key_PN"
F 5 "SN74HC164N" H 6250 2350 60  0001 L CNN "MPN"
F 6 "Integrated Circuits (ICs)" H 6250 2450 60  0001 L CNN "Category"
F 7 "Logic - Shift Registers" H 6250 2550 60  0001 L CNN "Family"
F 8 "http://www.ti.com/general/docs/suppproductinfo.tsp?distId=10&gotoUrl=http%3A%2F%2Fwww.ti.com%2Flit%2Fgpn%2Fsn74hc164" H 6250 2650 60  0001 L CNN "DK_Datasheet_Link"
F 9 "/product-detail/en/texas-instruments/SN74HC164N/296-8248-5-ND/376946" H 6250 2750 60  0001 L CNN "DK_Detail_Page"
F 10 "IC 8-BIT SHIFT REGISTER 14-DIP" H 6250 2850 60  0001 L CNN "Description"
F 11 "Texas Instruments" H 6250 2950 60  0001 L CNN "Manufacturer"
F 12 "Active" H 6250 3050 60  0001 L CNN "Status"
	1    6050 1850
	1    0    0    -1  
$EndComp
Text Label 9200 7250 0    50   ~ 0
BCK_BUF
Text Label 8150 7250 0    50   ~ 0
BCK_BUF
Wire Wire Line
	7950 7900 8000 7900
$Comp
L power:GND #PWR0103
U 1 1 5D37126A
P 8000 7900
F 0 "#PWR0103" H 8000 7650 50  0001 C CNN
F 1 "GND" V 8005 7772 50  0000 R CNN
F 2 "" H 8000 7900 50  0001 C CNN
F 3 "" H 8000 7900 50  0001 C CNN
	1    8000 7900
	0    -1   -1   0   
$EndComp
$Comp
L Connector:Conn_01x01_Male J38
U 1 1 5D370B27
P 7750 7900
F 0 "J38" H 7856 8078 50  0000 C CNN
F 1 "DAC_GND2" H 7856 7987 50  0000 C CNN
F 2 "Connector_Pin:Pin_D1.0mm_L10.0mm" H 7750 7900 50  0001 C CNN
F 3 "~" H 7750 7900 50  0001 C CNN
	1    7750 7900
	1    0    0    -1  
$EndComp
Connection ~ 12950 7150
Wire Wire Line
	14000 7150 12950 7150
Connection ~ 13650 7500
Wire Wire Line
	14000 7500 13650 7500
Connection ~ 13650 7900
Wire Wire Line
	13650 7900 14000 7900
Connection ~ 10750 7150
Wire Wire Line
	11750 7150 10750 7150
Connection ~ 11450 7500
Wire Wire Line
	11450 7500 11750 7500
Connection ~ 11450 7900
Wire Wire Line
	11750 7900 11450 7900
$Comp
L Connector:Conn_01x01_Male J33
U 1 1 5D45854F
P 14200 7150
F 0 "J33" H 14306 7328 50  0000 C CNN
F 1 "Pos_R" H 14306 7237 50  0000 C CNN
F 2 "Connector_Pin:Pin_D1.0mm_L10.0mm" H 14200 7150 50  0001 C CNN
F 3 "~" H 14200 7150 50  0001 C CNN
	1    14200 7150
	-1   0    0    1   
$EndComp
$Comp
L Connector:Conn_01x01_Male J34
U 1 1 5D458549
P 14200 7500
F 0 "J34" H 14306 7678 50  0000 C CNN
F 1 "Neg_R" H 14306 7587 50  0000 C CNN
F 2 "Connector_Pin:Pin_D1.0mm_L10.0mm" H 14200 7500 50  0001 C CNN
F 3 "~" H 14200 7500 50  0001 C CNN
	1    14200 7500
	-1   0    0    1   
$EndComp
$Comp
L Connector:Conn_01x01_Male J35
U 1 1 5D458543
P 14200 7900
F 0 "J35" H 14306 8078 50  0000 C CNN
F 1 "Com_R" H 14306 7987 50  0000 C CNN
F 2 "Connector_Pin:Pin_D1.0mm_L10.0mm" H 14200 7900 50  0001 C CNN
F 3 "~" H 14200 7900 50  0001 C CNN
	1    14200 7900
	-1   0    0    1   
$EndComp
$Comp
L Connector:Conn_01x01_Male J30
U 1 1 5D4581AB
P 11950 7150
F 0 "J30" H 12056 7328 50  0000 C CNN
F 1 "Pos_L" H 12056 7237 50  0000 C CNN
F 2 "Connector_Pin:Pin_D1.0mm_L10.0mm" H 11950 7150 50  0001 C CNN
F 3 "~" H 11950 7150 50  0001 C CNN
	1    11950 7150
	-1   0    0    1   
$EndComp
$Comp
L Connector:Conn_01x01_Male J31
U 1 1 5D457FE9
P 11950 7500
F 0 "J31" H 12056 7678 50  0000 C CNN
F 1 "Neg_L" H 12056 7587 50  0000 C CNN
F 2 "Connector_Pin:Pin_D1.0mm_L10.0mm" H 11950 7500 50  0001 C CNN
F 3 "~" H 11950 7500 50  0001 C CNN
	1    11950 7500
	-1   0    0    1   
$EndComp
$Comp
L Connector:Conn_01x01_Male J32
U 1 1 5D457DC2
P 11950 7900
F 0 "J32" H 12056 8078 50  0000 C CNN
F 1 "Com_L" H 12056 7987 50  0000 C CNN
F 2 "Connector_Pin:Pin_D1.0mm_L10.0mm" H 11950 7900 50  0001 C CNN
F 3 "~" H 11950 7900 50  0001 C CNN
	1    11950 7900
	-1   0    0    1   
$EndComp
Wire Wire Line
	12500 7400 13300 7400
Connection ~ 12500 7400
Wire Wire Line
	12500 7150 12950 7150
Connection ~ 12500 7150
Wire Wire Line
	12500 7150 12500 7400
Wire Wire Line
	12400 6900 12600 6900
Connection ~ 12400 6900
Connection ~ 12400 7500
Wire Wire Line
	12400 7500 12400 6900
Wire Wire Line
	10300 7400 11100 7400
Connection ~ 10300 7400
Wire Wire Line
	10300 7150 10750 7150
Connection ~ 10300 7150
Wire Wire Line
	10300 7150 10300 7400
Wire Wire Line
	10200 6900 10400 6900
Connection ~ 10200 6900
Connection ~ 10200 7500
Wire Wire Line
	10200 7500 10200 6900
Wire Wire Line
	12400 7650 12300 7650
Wire Wire Line
	12400 7500 12400 7650
Wire Wire Line
	13650 7500 12400 7500
Wire Wire Line
	13650 7550 13650 7500
Wire Wire Line
	13300 7400 13300 7550
Wire Wire Line
	12300 7400 12500 7400
Wire Wire Line
	12950 7150 12950 7550
Wire Wire Line
	12300 7150 12500 7150
Wire Wire Line
	12600 6900 12600 7550
Wire Wire Line
	12300 6900 12400 6900
Connection ~ 13300 7900
Wire Wire Line
	13650 7900 13650 7850
Wire Wire Line
	13300 7900 13650 7900
Connection ~ 12950 7900
Wire Wire Line
	13300 7900 13300 7850
Wire Wire Line
	12950 7900 13300 7900
Connection ~ 12600 7900
Wire Wire Line
	12950 7900 12950 7850
Wire Wire Line
	12600 7900 12950 7900
Wire Wire Line
	12600 7900 12600 7850
Wire Wire Line
	12300 7900 12600 7900
$Comp
L Device:R R8
U 1 1 5D41295E
P 13650 7700
F 0 "R8" H 13720 7746 50  0000 L CNN
F 1 "Rb2R" H 13720 7655 50  0000 L CNN
F 2 "Resistor_THT:R_Axial_DIN0414_L11.9mm_D4.5mm_P15.24mm_Horizontal" V 13580 7700 50  0001 C CNN
F 3 "~" H 13650 7700 50  0001 C CNN
	1    13650 7700
	1    0    0    -1  
$EndComp
$Comp
L Device:R R7
U 1 1 5D412958
P 13300 7700
F 0 "R7" H 13370 7746 50  0000 L CNN
F 1 "Rb1R" H 13370 7655 50  0000 L CNN
F 2 "Resistor_THT:R_Axial_DIN0414_L11.9mm_D4.5mm_P15.24mm_Horizontal" V 13230 7700 50  0001 C CNN
F 3 "~" H 13300 7700 50  0001 C CNN
	1    13300 7700
	1    0    0    -1  
$EndComp
$Comp
L Device:R R6
U 1 1 5D412952
P 12950 7700
F 0 "R6" H 13020 7746 50  0000 L CNN
F 1 "Ra2R" H 13020 7655 50  0000 L CNN
F 2 "Resistor_THT:R_Axial_DIN0414_L11.9mm_D4.5mm_P15.24mm_Horizontal" V 12880 7700 50  0001 C CNN
F 3 "~" H 12950 7700 50  0001 C CNN
	1    12950 7700
	1    0    0    -1  
$EndComp
$Comp
L Device:R R5
U 1 1 5D41294C
P 12600 7700
F 0 "R5" H 12670 7746 50  0000 L CNN
F 1 "Ra1R" H 12670 7655 50  0000 L CNN
F 2 "Resistor_THT:R_Axial_DIN0414_L11.9mm_D4.5mm_P15.24mm_Horizontal" V 12530 7700 50  0001 C CNN
F 3 "~" H 12600 7700 50  0001 C CNN
	1    12600 7700
	1    0    0    -1  
$EndComp
$Comp
L Connector:Conn_01x01_Male J29
U 1 1 5D412946
P 12100 7900
F 0 "J29" H 12206 8078 50  0000 C CNN
F 1 "Com_R" H 12206 7987 50  0000 C CNN
F 2 "Connector_Pin:Pin_D1.0mm_L10.0mm" H 12100 7900 50  0001 C CNN
F 3 "~" H 12100 7900 50  0001 C CNN
	1    12100 7900
	1    0    0    -1  
$EndComp
$Comp
L Connector:Conn_01x01_Male J28
U 1 1 5D412940
P 12100 7650
F 0 "J28" H 12206 7828 50  0000 C CNN
F 1 "Bneg_R" H 12206 7737 50  0000 C CNN
F 2 "Connector_Pin:Pin_D1.0mm_L10.0mm" H 12100 7650 50  0001 C CNN
F 3 "~" H 12100 7650 50  0001 C CNN
	1    12100 7650
	1    0    0    -1  
$EndComp
$Comp
L Connector:Conn_01x01_Male J27
U 1 1 5D41293A
P 12100 7400
F 0 "J27" H 12206 7578 50  0000 C CNN
F 1 "Bpos_R" H 12206 7487 50  0000 C CNN
F 2 "Connector_Pin:Pin_D1.0mm_L10.0mm" H 12100 7400 50  0001 C CNN
F 3 "~" H 12100 7400 50  0001 C CNN
	1    12100 7400
	1    0    0    -1  
$EndComp
$Comp
L Connector:Conn_01x01_Male J26
U 1 1 5D412934
P 12100 7150
F 0 "J26" H 12206 7328 50  0000 C CNN
F 1 "Aneg_R" H 12206 7237 50  0000 C CNN
F 2 "Connector_Pin:Pin_D1.0mm_L10.0mm" H 12100 7150 50  0001 C CNN
F 3 "~" H 12100 7150 50  0001 C CNN
	1    12100 7150
	1    0    0    -1  
$EndComp
$Comp
L Connector:Conn_01x01_Male J25
U 1 1 5D41292E
P 12100 6900
F 0 "J25" H 12206 7078 50  0000 C CNN
F 1 "Apos_R" H 12206 6987 50  0000 C CNN
F 2 "Connector_Pin:Pin_D1.0mm_L10.0mm" H 12100 6900 50  0001 C CNN
F 3 "~" H 12100 6900 50  0001 C CNN
	1    12100 6900
	1    0    0    -1  
$EndComp
Wire Wire Line
	10200 7650 10100 7650
Wire Wire Line
	10200 7500 10200 7650
Wire Wire Line
	11450 7500 10200 7500
Wire Wire Line
	11450 7550 11450 7500
Wire Wire Line
	11100 7400 11100 7550
Wire Wire Line
	10100 7400 10300 7400
Wire Wire Line
	10750 7150 10750 7550
Wire Wire Line
	10100 7150 10300 7150
Wire Wire Line
	10400 6900 10400 7550
Wire Wire Line
	10100 6900 10200 6900
Connection ~ 11100 7900
Wire Wire Line
	11450 7900 11450 7850
Wire Wire Line
	11100 7900 11450 7900
Connection ~ 10750 7900
Wire Wire Line
	11100 7900 11100 7850
Wire Wire Line
	10750 7900 11100 7900
Connection ~ 10400 7900
Wire Wire Line
	10750 7900 10750 7850
Wire Wire Line
	10400 7900 10750 7900
Wire Wire Line
	10400 7900 10400 7850
Wire Wire Line
	10100 7900 10400 7900
$Comp
L Device:R R4
U 1 1 5D3C4BE2
P 11450 7700
F 0 "R4" H 11520 7746 50  0000 L CNN
F 1 "Rb2L" H 11520 7655 50  0000 L CNN
F 2 "Resistor_THT:R_Axial_DIN0414_L11.9mm_D4.5mm_P15.24mm_Horizontal" V 11380 7700 50  0001 C CNN
F 3 "~" H 11450 7700 50  0001 C CNN
	1    11450 7700
	1    0    0    -1  
$EndComp
$Comp
L Device:R R3
U 1 1 5D3C4BDC
P 11100 7700
F 0 "R3" H 11170 7746 50  0000 L CNN
F 1 "Rb1L" H 11170 7655 50  0000 L CNN
F 2 "Resistor_THT:R_Axial_DIN0414_L11.9mm_D4.5mm_P15.24mm_Horizontal" V 11030 7700 50  0001 C CNN
F 3 "~" H 11100 7700 50  0001 C CNN
	1    11100 7700
	1    0    0    -1  
$EndComp
$Comp
L Device:R R2
U 1 1 5D3C4A78
P 10750 7700
F 0 "R2" H 10820 7746 50  0000 L CNN
F 1 "Ra2L" H 10820 7655 50  0000 L CNN
F 2 "Resistor_THT:R_Axial_DIN0414_L11.9mm_D4.5mm_P15.24mm_Horizontal" V 10680 7700 50  0001 C CNN
F 3 "~" H 10750 7700 50  0001 C CNN
	1    10750 7700
	1    0    0    -1  
$EndComp
$Comp
L Device:R R1
U 1 1 5D3C48CD
P 10400 7700
F 0 "R1" H 10470 7746 50  0000 L CNN
F 1 "Ra1L" H 10470 7655 50  0000 L CNN
F 2 "Resistor_THT:R_Axial_DIN0414_L11.9mm_D4.5mm_P15.24mm_Horizontal" V 10330 7700 50  0001 C CNN
F 3 "~" H 10400 7700 50  0001 C CNN
	1    10400 7700
	1    0    0    -1  
$EndComp
$Comp
L Connector:Conn_01x01_Male J20
U 1 1 5D3C46F0
P 9900 7900
F 0 "J20" H 10006 8078 50  0000 C CNN
F 1 "Com_L" H 10006 7987 50  0000 C CNN
F 2 "Connector_Pin:Pin_D1.0mm_L10.0mm" H 9900 7900 50  0001 C CNN
F 3 "~" H 9900 7900 50  0001 C CNN
	1    9900 7900
	1    0    0    -1  
$EndComp
$Comp
L Connector:Conn_01x01_Male J19
U 1 1 5D3BC6B7
P 9900 7650
F 0 "J19" H 10006 7828 50  0000 C CNN
F 1 "Bneg_L" H 10006 7737 50  0000 C CNN
F 2 "Connector_Pin:Pin_D1.0mm_L10.0mm" H 9900 7650 50  0001 C CNN
F 3 "~" H 9900 7650 50  0001 C CNN
	1    9900 7650
	1    0    0    -1  
$EndComp
$Comp
L Connector:Conn_01x01_Male J18
U 1 1 5D3BC6B1
P 9900 7400
F 0 "J18" H 10006 7578 50  0000 C CNN
F 1 "Bpos_L" H 10006 7487 50  0000 C CNN
F 2 "Connector_Pin:Pin_D1.0mm_L10.0mm" H 9900 7400 50  0001 C CNN
F 3 "~" H 9900 7400 50  0001 C CNN
	1    9900 7400
	1    0    0    -1  
$EndComp
$Comp
L Connector:Conn_01x01_Male J17
U 1 1 5D3BC4B0
P 9900 7150
F 0 "J17" H 10006 7328 50  0000 C CNN
F 1 "Aneg_L" H 10006 7237 50  0000 C CNN
F 2 "Connector_Pin:Pin_D1.0mm_L10.0mm" H 9900 7150 50  0001 C CNN
F 3 "~" H 9900 7150 50  0001 C CNN
	1    9900 7150
	1    0    0    -1  
$EndComp
$Comp
L Connector:Conn_01x01_Male J16
U 1 1 5D3BC2CB
P 9900 6900
F 0 "J16" H 10006 7078 50  0000 C CNN
F 1 "Apos_L" H 10006 6987 50  0000 C CNN
F 2 "Connector_Pin:Pin_D1.0mm_L10.0mm" H 9900 6900 50  0001 C CNN
F 3 "~" H 9900 6900 50  0001 C CNN
	1    9900 6900
	1    0    0    -1  
$EndComp
Wire Wire Line
	8950 7250 9200 7250
Wire Wire Line
	7900 7250 8150 7250
Text Label 9200 7000 0    50   ~ 0
LRCK
Wire Wire Line
	8950 7000 9200 7000
Text Label 8150 7000 0    50   ~ 0
LRCK
Wire Wire Line
	7900 7000 8150 7000
Text Label 9200 6750 0    50   ~ 0
DATA-39,5
Wire Wire Line
	9200 6750 8950 6750
Text Label 8150 6750 0    50   ~ 0
DATA-7,5
Wire Wire Line
	7900 6750 8150 6750
$Comp
L Connector:Conn_01x01_Male J4
U 1 1 5D38DDF5
P 7700 6750
F 0 "J4" H 7806 6928 50  0000 C CNN
F 1 "DAC_DATA_R" H 7806 6837 50  0000 C CNN
F 2 "Connector_Pin:Pin_D1.0mm_L10.0mm" H 7700 6750 50  0001 C CNN
F 3 "~" H 7700 6750 50  0001 C CNN
	1    7700 6750
	1    0    0    -1  
$EndComp
$Comp
L Connector:Conn_01x01_Male J5
U 1 1 5D38DCF5
P 7700 7000
F 0 "J5" H 7806 7178 50  0000 C CNN
F 1 "DAC_LRCK_R" H 7806 7087 50  0000 C CNN
F 2 "Connector_Pin:Pin_D1.0mm_L10.0mm" H 7700 7000 50  0001 C CNN
F 3 "~" H 7700 7000 50  0001 C CNN
	1    7700 7000
	1    0    0    -1  
$EndComp
$Comp
L Connector:Conn_01x01_Male J6
U 1 1 5D38DC83
P 7700 7250
F 0 "J6" H 7806 7428 50  0000 C CNN
F 1 "DAC_BCK_R" H 7806 7337 50  0000 C CNN
F 2 "Connector_Pin:Pin_D1.0mm_L10.0mm" H 7700 7250 50  0001 C CNN
F 3 "~" H 7700 7250 50  0001 C CNN
	1    7700 7250
	1    0    0    -1  
$EndComp
$Comp
L Connector:Conn_01x01_Male J7
U 1 1 5D38DC05
P 8750 6750
F 0 "J7" H 8856 6928 50  0000 C CNN
F 1 "DAC_DATA_L" H 8856 6837 50  0000 C CNN
F 2 "Connector_Pin:Pin_D1.0mm_L10.0mm" H 8750 6750 50  0001 C CNN
F 3 "~" H 8750 6750 50  0001 C CNN
	1    8750 6750
	1    0    0    -1  
$EndComp
$Comp
L Connector:Conn_01x01_Male J8
U 1 1 5D38DB9D
P 8750 7000
F 0 "J8" H 8856 7178 50  0000 C CNN
F 1 "DAC_LRCK_L" H 8856 7087 50  0000 C CNN
F 2 "Connector_Pin:Pin_D1.0mm_L10.0mm" H 8750 7000 50  0001 C CNN
F 3 "~" H 8750 7000 50  0001 C CNN
	1    8750 7000
	1    0    0    -1  
$EndComp
$Comp
L Connector:Conn_01x01_Male J9
U 1 1 5D38DB2F
P 8750 7250
F 0 "J9" H 8856 7428 50  0000 C CNN
F 1 "DAC_BCK_L" H 8856 7337 50  0000 C CNN
F 2 "Connector_Pin:Pin_D1.0mm_L10.0mm" H 8750 7250 50  0001 C CNN
F 3 "~" H 8750 7250 50  0001 C CNN
	1    8750 7250
	1    0    0    -1  
$EndComp
Wire Wire Line
	8950 7900 9000 7900
$Comp
L power:GND #PWR0132
U 1 1 5D377C45
P 9000 7900
F 0 "#PWR0132" H 9000 7650 50  0001 C CNN
F 1 "GND" V 9005 7772 50  0000 R CNN
F 2 "" H 9000 7900 50  0001 C CNN
F 3 "" H 9000 7900 50  0001 C CNN
	1    9000 7900
	0    -1   -1   0   
$EndComp
Wire Wire Line
	8950 7650 9000 7650
$Comp
L power:+12V #PWR0131
U 1 1 5D37097B
P 9000 7650
F 0 "#PWR0131" H 9000 7500 50  0001 C CNN
F 1 "+12V" V 9015 7778 50  0000 L CNN
F 2 "" H 9000 7650 50  0001 C CNN
F 3 "" H 9000 7650 50  0001 C CNN
	1    9000 7650
	0    1    1    0   
$EndComp
$Comp
L Connector:Conn_01x01_Male J11
U 1 1 5D361D40
P 8750 7900
F 0 "J11" H 8856 8078 50  0000 C CNN
F 1 "DAC_GND" H 8856 7987 50  0000 C CNN
F 2 "Connector_Pin:Pin_D1.0mm_L10.0mm" H 8750 7900 50  0001 C CNN
F 3 "~" H 8750 7900 50  0001 C CNN
	1    8750 7900
	1    0    0    -1  
$EndComp
$Comp
L Connector:Conn_01x01_Male J10
U 1 1 5D361B13
P 8750 7650
F 0 "J10" H 8856 7828 50  0000 C CNN
F 1 "DAC_12V" H 8856 7737 50  0000 C CNN
F 2 "Connector_Pin:Pin_D1.0mm_L10.0mm" H 8750 7650 50  0001 C CNN
F 3 "~" H 8750 7650 50  0001 C CNN
	1    8750 7650
	1    0    0    -1  
$EndComp
NoConn ~ 3300 9400
$Comp
L Connector:Conn_Coaxial J3
U 1 1 5D2F9D44
P 1050 6150
F 0 "J3" H 978 6388 50  0000 C CNN
F 1 "BCK*" H 978 6297 50  0000 C CNN
F 2 "Connector_Coaxial:U.FL_Hirose_U.FL-R-SMT-1_Vertical" H 1050 6150 50  0001 C CNN
F 3 " ~" H 1050 6150 50  0001 C CNN
	1    1050 6150
	-1   0    0    -1  
$EndComp
$Comp
L Connector:Conn_Coaxial J40
U 1 1 5D2F9D4A
P 1450 6150
F 0 "J40" H 1378 6388 50  0000 C CNN
F 1 "BCK*" H 1378 6297 50  0000 C CNN
F 2 "Connector_Coaxial:U.FL_Hirose_U.FL-R-SMT-1_Vertical" H 1450 6150 50  0001 C CNN
F 3 " ~" H 1450 6150 50  0001 C CNN
	1    1450 6150
	-1   0    0    -1  
$EndComp
$Comp
L Connector:Conn_Coaxial J45
U 1 1 5D2F9D50
P 1850 6150
F 0 "J45" H 1778 6388 50  0000 C CNN
F 1 "BCK*" H 1778 6297 50  0000 C CNN
F 2 "Connector_Coaxial:U.FL_Hirose_U.FL-R-SMT-1_Vertical" H 1850 6150 50  0001 C CNN
F 3 " ~" H 1850 6150 50  0001 C CNN
	1    1850 6150
	-1   0    0    -1  
$EndComp
$Comp
L Connector:Conn_Coaxial J47
U 1 1 5D2F9D56
P 2250 6150
F 0 "J47" H 2178 6388 50  0000 C CNN
F 1 "BCK*" H 2178 6297 50  0000 C CNN
F 2 "Connector_Coaxial:U.FL_Hirose_U.FL-R-SMT-1_Vertical" H 2250 6150 50  0001 C CNN
F 3 " ~" H 2250 6150 50  0001 C CNN
	1    2250 6150
	-1   0    0    -1  
$EndComp
$Comp
L Connector:Conn_Coaxial J49
U 1 1 5D2F9D5C
P 2650 6150
F 0 "J49" H 2578 6388 50  0000 C CNN
F 1 "BCK*" H 2578 6297 50  0000 C CNN
F 2 "Connector_Coaxial:U.FL_Hirose_U.FL-R-SMT-1_Vertical" H 2650 6150 50  0001 C CNN
F 3 " ~" H 2650 6150 50  0001 C CNN
	1    2650 6150
	-1   0    0    -1  
$EndComp
$Comp
L Connector:Conn_Coaxial J51
U 1 1 5D2F9D62
P 3050 6150
F 0 "J51" H 2978 6388 50  0000 C CNN
F 1 "BCK*" H 2978 6297 50  0000 C CNN
F 2 "Connector_Coaxial:U.FL_Hirose_U.FL-R-SMT-1_Vertical" H 3050 6150 50  0001 C CNN
F 3 " ~" H 3050 6150 50  0001 C CNN
	1    3050 6150
	-1   0    0    -1  
$EndComp
Wire Wire Line
	1050 6350 1050 6450
Wire Wire Line
	1050 6450 1450 6450
Wire Wire Line
	1450 6450 1450 6350
Wire Wire Line
	1450 6450 1850 6450
Wire Wire Line
	1850 6450 1850 6350
Connection ~ 1450 6450
Wire Wire Line
	1850 6450 2250 6450
Wire Wire Line
	2250 6450 2250 6350
Connection ~ 1850 6450
Wire Wire Line
	2250 6450 2650 6450
Wire Wire Line
	2650 6450 2650 6350
Connection ~ 2250 6450
Wire Wire Line
	2650 6450 3050 6450
Wire Wire Line
	3050 6450 3050 6350
Connection ~ 2650 6450
Wire Wire Line
	1250 6150 1250 5800
Wire Wire Line
	1250 5800 1650 5800
Wire Wire Line
	1650 5800 1650 6150
Wire Wire Line
	1650 5800 2050 5800
Wire Wire Line
	2050 5800 2050 6150
Connection ~ 1650 5800
Wire Wire Line
	2050 5800 2450 5800
Wire Wire Line
	2450 5800 2450 6150
Connection ~ 2050 5800
Wire Wire Line
	2450 5800 2850 5800
Wire Wire Line
	2850 5800 2850 6150
Connection ~ 2450 5800
Wire Wire Line
	2850 5800 3250 5800
Wire Wire Line
	3250 5800 3250 6150
Connection ~ 2850 5800
$Comp
L Connector:Conn_Coaxial J37
U 1 1 5D2F9D86
P 1050 7300
F 0 "J37" H 978 7538 50  0000 C CNN
F 1 "LRCK*" H 978 7447 50  0000 C CNN
F 2 "Connector_Coaxial:U.FL_Hirose_U.FL-R-SMT-1_Vertical" H 1050 7300 50  0001 C CNN
F 3 " ~" H 1050 7300 50  0001 C CNN
	1    1050 7300
	-1   0    0    -1  
$EndComp
$Comp
L Connector:Conn_Coaxial J41
U 1 1 5D2F9D8C
P 1450 7300
F 0 "J41" H 1378 7538 50  0000 C CNN
F 1 "LRCK*" H 1378 7447 50  0000 C CNN
F 2 "Connector_Coaxial:U.FL_Hirose_U.FL-R-SMT-1_Vertical" H 1450 7300 50  0001 C CNN
F 3 " ~" H 1450 7300 50  0001 C CNN
	1    1450 7300
	-1   0    0    -1  
$EndComp
$Comp
L Connector:Conn_Coaxial J46
U 1 1 5D2F9D92
P 1850 7300
F 0 "J46" H 1778 7538 50  0000 C CNN
F 1 "LRCK*" H 1778 7447 50  0000 C CNN
F 2 "Connector_Coaxial:U.FL_Hirose_U.FL-R-SMT-1_Vertical" H 1850 7300 50  0001 C CNN
F 3 " ~" H 1850 7300 50  0001 C CNN
	1    1850 7300
	-1   0    0    -1  
$EndComp
$Comp
L Connector:Conn_Coaxial J48
U 1 1 5D2F9D98
P 2250 7300
F 0 "J48" H 2178 7538 50  0000 C CNN
F 1 "LRCK*" H 2178 7447 50  0000 C CNN
F 2 "Connector_Coaxial:U.FL_Hirose_U.FL-R-SMT-1_Vertical" H 2250 7300 50  0001 C CNN
F 3 " ~" H 2250 7300 50  0001 C CNN
	1    2250 7300
	-1   0    0    -1  
$EndComp
$Comp
L Connector:Conn_Coaxial J50
U 1 1 5D2F9D9E
P 2650 7300
F 0 "J50" H 2578 7538 50  0000 C CNN
F 1 "LRCK*" H 2578 7447 50  0000 C CNN
F 2 "Connector_Coaxial:U.FL_Hirose_U.FL-R-SMT-1_Vertical" H 2650 7300 50  0001 C CNN
F 3 " ~" H 2650 7300 50  0001 C CNN
	1    2650 7300
	-1   0    0    -1  
$EndComp
$Comp
L Connector:Conn_Coaxial J52
U 1 1 5D2F9DA4
P 3050 7300
F 0 "J52" H 2978 7538 50  0000 C CNN
F 1 "LRCK*" H 2978 7447 50  0000 C CNN
F 2 "Connector_Coaxial:U.FL_Hirose_U.FL-R-SMT-1_Vertical" H 3050 7300 50  0001 C CNN
F 3 " ~" H 3050 7300 50  0001 C CNN
	1    3050 7300
	-1   0    0    -1  
$EndComp
Wire Wire Line
	1050 7500 1050 7600
Wire Wire Line
	1050 7600 1450 7600
Wire Wire Line
	1450 7600 1450 7500
Wire Wire Line
	1450 7600 1850 7600
Wire Wire Line
	1850 7600 1850 7500
Connection ~ 1450 7600
Wire Wire Line
	1850 7600 2250 7600
Wire Wire Line
	2250 7600 2250 7500
Connection ~ 1850 7600
Wire Wire Line
	2250 7600 2650 7600
Wire Wire Line
	2650 7600 2650 7500
Connection ~ 2250 7600
Wire Wire Line
	2650 7600 3050 7600
Wire Wire Line
	3050 7600 3050 7500
Connection ~ 2650 7600
Wire Wire Line
	1250 7300 1250 6950
Wire Wire Line
	1250 6950 1650 6950
Wire Wire Line
	1650 6950 1650 7300
Wire Wire Line
	1650 6950 2050 6950
Wire Wire Line
	2050 6950 2050 7300
Connection ~ 1650 6950
Wire Wire Line
	2050 6950 2450 6950
Wire Wire Line
	2450 6950 2450 7300
Connection ~ 2050 6950
Wire Wire Line
	2450 6950 2850 6950
Wire Wire Line
	2850 6950 2850 7300
Connection ~ 2450 6950
Wire Wire Line
	2850 6950 3250 6950
Wire Wire Line
	3250 6950 3250 7300
Connection ~ 2850 6950
Wire Wire Line
	3200 9300 3300 9300
Wire Wire Line
	3900 9500 4500 9500
Wire Wire Line
	3900 9300 3900 9500
Connection ~ 3300 9300
Wire Wire Line
	3300 9300 3900 9300
$Comp
L Device:R R10
U 1 1 5D36CF6D
P 1400 2450
F 0 "R10" V 1193 2450 50  0000 C CNN
F 1 "100" V 1284 2450 50  0000 C CNN
F 2 "Resistor_SMD:R_0805_2012Metric_Pad1.15x1.40mm_HandSolder" V 1330 2450 50  0001 C CNN
F 3 "~" H 1400 2450 50  0001 C CNN
	1    1400 2450
	0    1    1    0   
$EndComp
$Comp
L Device:R R12
U 1 1 5D38B59D
P 1400 3900
F 0 "R12" V 1193 3900 50  0000 C CNN
F 1 "100" V 1284 3900 50  0000 C CNN
F 2 "Resistor_SMD:R_0805_2012Metric_Pad1.15x1.40mm_HandSolder" V 1330 3900 50  0001 C CNN
F 3 "~" H 1400 3900 50  0001 C CNN
	1    1400 3900
	0    1    1    0   
$EndComp
Wire Wire Line
	1150 3900 1250 3900
Wire Wire Line
	1150 2450 1250 2450
Wire Wire Line
	1550 2450 1800 2450
Wire Wire Line
	1550 3900 2200 3900
$Comp
L Device:R R13
U 1 1 5D42B383
P 1600 1400
F 0 "R13" V 1350 1400 50  0000 C CNN
F 1 "100" V 1450 1400 50  0000 C CNN
F 2 "Resistor_SMD:R_0805_2012Metric_Pad1.15x1.40mm_HandSolder" V 1530 1400 50  0001 C CNN
F 3 "~" H 1600 1400 50  0001 C CNN
	1    1600 1400
	0    1    1    0   
$EndComp
Wire Wire Line
	1300 1400 1450 1400
Wire Wire Line
	1750 1400 2100 1400
Connection ~ 2100 1400
Wire Wire Line
	1150 3150 2100 3150
$Comp
L Connector:Conn_Coaxial J53
U 1 1 5D4EF28C
P 1050 5050
F 0 "J53" H 978 5288 50  0000 C CNN
F 1 "LRCK*" H 978 5197 50  0000 C CNN
F 2 "Connector_Coaxial:U.FL_Hirose_U.FL-R-SMT-1_Vertical" H 1050 5050 50  0001 C CNN
F 3 " ~" H 1050 5050 50  0001 C CNN
	1    1050 5050
	-1   0    0    -1  
$EndComp
$Comp
L Connector:Conn_Coaxial J54
U 1 1 5D4EF296
P 1450 5050
F 0 "J54" H 1378 5288 50  0000 C CNN
F 1 "LRCK*" H 1378 5197 50  0000 C CNN
F 2 "Connector_Coaxial:U.FL_Hirose_U.FL-R-SMT-1_Vertical" H 1450 5050 50  0001 C CNN
F 3 " ~" H 1450 5050 50  0001 C CNN
	1    1450 5050
	-1   0    0    -1  
$EndComp
$Comp
L Connector:Conn_Coaxial J55
U 1 1 5D4EF2A0
P 1850 5050
F 0 "J55" H 1778 5288 50  0000 C CNN
F 1 "LRCK*" H 1778 5197 50  0000 C CNN
F 2 "Connector_Coaxial:U.FL_Hirose_U.FL-R-SMT-1_Vertical" H 1850 5050 50  0001 C CNN
F 3 " ~" H 1850 5050 50  0001 C CNN
	1    1850 5050
	-1   0    0    -1  
$EndComp
$Comp
L Connector:Conn_Coaxial J56
U 1 1 5D4EF2AA
P 2250 5050
F 0 "J56" H 2178 5288 50  0000 C CNN
F 1 "LRCK*" H 2178 5197 50  0000 C CNN
F 2 "Connector_Coaxial:U.FL_Hirose_U.FL-R-SMT-1_Vertical" H 2250 5050 50  0001 C CNN
F 3 " ~" H 2250 5050 50  0001 C CNN
	1    2250 5050
	-1   0    0    -1  
$EndComp
$Comp
L Connector:Conn_Coaxial J57
U 1 1 5D4EF2B4
P 2650 5050
F 0 "J57" H 2578 5288 50  0000 C CNN
F 1 "LRCK*" H 2578 5197 50  0000 C CNN
F 2 "Connector_Coaxial:U.FL_Hirose_U.FL-R-SMT-1_Vertical" H 2650 5050 50  0001 C CNN
F 3 " ~" H 2650 5050 50  0001 C CNN
	1    2650 5050
	-1   0    0    -1  
$EndComp
$Comp
L Connector:Conn_Coaxial J58
U 1 1 5D4EF2BE
P 3050 5050
F 0 "J58" H 2978 5288 50  0000 C CNN
F 1 "LRCK*" H 2978 5197 50  0000 C CNN
F 2 "Connector_Coaxial:U.FL_Hirose_U.FL-R-SMT-1_Vertical" H 3050 5050 50  0001 C CNN
F 3 " ~" H 3050 5050 50  0001 C CNN
	1    3050 5050
	-1   0    0    -1  
$EndComp
Wire Wire Line
	1050 5250 1050 5350
Wire Wire Line
	1050 5350 1450 5350
Wire Wire Line
	1450 5350 1450 5250
Wire Wire Line
	1450 5350 1850 5350
Wire Wire Line
	1850 5350 1850 5250
Connection ~ 1450 5350
Wire Wire Line
	1850 5350 2250 5350
Wire Wire Line
	2250 5350 2250 5250
Connection ~ 1850 5350
Wire Wire Line
	2250 5350 2650 5350
Wire Wire Line
	2650 5350 2650 5250
Connection ~ 2250 5350
Wire Wire Line
	2650 5350 3050 5350
Wire Wire Line
	3050 5350 3050 5250
Connection ~ 2650 5350
Wire Wire Line
	1250 5050 1250 4700
Wire Wire Line
	1250 4700 1650 4700
Wire Wire Line
	1650 4700 1650 5050
Wire Wire Line
	1650 4700 2050 4700
Wire Wire Line
	2050 4700 2050 5050
Connection ~ 1650 4700
Wire Wire Line
	2050 4700 2450 4700
Wire Wire Line
	2450 4700 2450 5050
Connection ~ 2050 4700
Wire Wire Line
	2450 4700 2850 4700
Wire Wire Line
	2850 4700 2850 5050
Connection ~ 2450 4700
Wire Wire Line
	2850 4700 3250 4700
Wire Wire Line
	3250 4700 3250 5050
Connection ~ 2850 4700
$Comp
L Connector:Conn_01x01_Male J24
U 1 1 5D2020C1
P 10550 10850
F 0 "J24" H 10656 11028 50  0000 C CNN
F 1 "hole_outer" H 10656 10937 50  0000 C CNN
F 2 "MountingHole:MountingHole_3.2mm_M3" H 10550 10850 50  0001 C CNN
F 3 "~" H 10550 10850 50  0001 C CNN
	1    10550 10850
	1    0    0    -1  
$EndComp
$Comp
L Connector:Conn_01x01_Male J23
U 1 1 5D202104
P 10550 10600
F 0 "J23" H 10656 10778 50  0000 C CNN
F 1 "hole_outer" H 10656 10687 50  0000 C CNN
F 2 "MountingHole:MountingHole_3.2mm_M3" H 10550 10600 50  0001 C CNN
F 3 "~" H 10550 10600 50  0001 C CNN
	1    10550 10600
	1    0    0    -1  
$EndComp
$Comp
L Connector:Conn_01x01_Male J22
U 1 1 5D20212A
P 10550 10350
F 0 "J22" H 10656 10528 50  0000 C CNN
F 1 "hole_outer" H 10656 10437 50  0000 C CNN
F 2 "MountingHole:MountingHole_3.2mm_M3" H 10550 10350 50  0001 C CNN
F 3 "~" H 10550 10350 50  0001 C CNN
	1    10550 10350
	1    0    0    -1  
$EndComp
$Comp
L Connector:Conn_01x01_Male J21
U 1 1 5D202152
P 10550 10100
F 0 "J21" H 10656 10278 50  0000 C CNN
F 1 "hole_outer" H 10656 10187 50  0000 C CNN
F 2 "MountingHole:MountingHole_3.2mm_M3" H 10550 10100 50  0001 C CNN
F 3 "~" H 10550 10100 50  0001 C CNN
	1    10550 10100
	1    0    0    -1  
$EndComp
$Comp
L Connector:Conn_01x01_Male J15
U 1 1 5D20217C
P 10050 10850
F 0 "J15" H 10156 11028 50  0000 C CNN
F 1 "hole_inner" H 10156 10937 50  0000 C CNN
F 2 "MountingHole:MountingHole_3.2mm_M3" H 10050 10850 50  0001 C CNN
F 3 "~" H 10050 10850 50  0001 C CNN
	1    10050 10850
	1    0    0    -1  
$EndComp
$Comp
L Connector:Conn_01x01_Male J14
U 1 1 5D2021D8
P 10050 10600
F 0 "J14" H 10156 10778 50  0000 C CNN
F 1 "hole_inner" H 10156 10687 50  0000 C CNN
F 2 "MountingHole:MountingHole_3.2mm_M3" H 10050 10600 50  0001 C CNN
F 3 "~" H 10050 10600 50  0001 C CNN
	1    10050 10600
	1    0    0    -1  
$EndComp
$Comp
L Connector:Conn_01x01_Male J13
U 1 1 5D202212
P 10050 10350
F 0 "J13" H 10156 10528 50  0000 C CNN
F 1 "hole_inner" H 10156 10437 50  0000 C CNN
F 2 "MountingHole:MountingHole_3.2mm_M3" H 10050 10350 50  0001 C CNN
F 3 "~" H 10050 10350 50  0001 C CNN
	1    10050 10350
	1    0    0    -1  
$EndComp
$Comp
L Connector:Conn_01x01_Male J12
U 1 1 5D202242
P 10050 10100
F 0 "J12" H 10156 10278 50  0000 C CNN
F 1 "hole_inner" H 10156 10187 50  0000 C CNN
F 2 "MountingHole:MountingHole_3.2mm_M3" H 10050 10100 50  0001 C CNN
F 3 "~" H 10050 10100 50  0001 C CNN
	1    10050 10100
	1    0    0    -1  
$EndComp
NoConn ~ 10250 10100
NoConn ~ 10250 10350
NoConn ~ 10250 10600
NoConn ~ 10250 10850
NoConn ~ 10750 10100
NoConn ~ 10750 10350
NoConn ~ 10750 10600
NoConn ~ 10750 10850
$Comp
L Connector:Conn_01x01_Male J64
U 1 1 5D5A7D26
P 10550 9300
F 0 "J64" H 10656 9478 50  0000 C CNN
F 1 "hole_outer" H 10656 9387 50  0000 C CNN
F 2 "MountingHole:MountingHole_3.2mm_M3" H 10550 9300 50  0001 C CNN
F 3 "~" H 10550 9300 50  0001 C CNN
	1    10550 9300
	1    0    0    -1  
$EndComp
$Comp
L Connector:Conn_01x01_Male J63
U 1 1 5D5A7D30
P 10550 9050
F 0 "J63" H 10656 9228 50  0000 C CNN
F 1 "hole_outer" H 10656 9137 50  0000 C CNN
F 2 "MountingHole:MountingHole_3.2mm_M3" H 10550 9050 50  0001 C CNN
F 3 "~" H 10550 9050 50  0001 C CNN
	1    10550 9050
	1    0    0    -1  
$EndComp
NoConn ~ 10750 9050
NoConn ~ 10750 9300
NoConn ~ 10750 9800
NoConn ~ 10750 9550
$Comp
L Connector:Conn_01x01_Male J65
U 1 1 5D5A7D1C
P 10550 9550
F 0 "J65" H 10656 9728 50  0000 C CNN
F 1 "hole_outer" H 10656 9637 50  0000 C CNN
F 2 "MountingHole:MountingHole_3.2mm_M3" H 10550 9550 50  0001 C CNN
F 3 "~" H 10550 9550 50  0001 C CNN
	1    10550 9550
	1    0    0    -1  
$EndComp
$Comp
L Connector:Conn_01x01_Male J66
U 1 1 5D5A7D12
P 10550 9800
F 0 "J66" H 10656 9978 50  0000 C CNN
F 1 "hole_outer" H 10656 9887 50  0000 C CNN
F 2 "MountingHole:MountingHole_3.2mm_M3" H 10550 9800 50  0001 C CNN
F 3 "~" H 10550 9800 50  0001 C CNN
	1    10550 9800
	1    0    0    -1  
$EndComp
$EndSCHEMATC
